\babel@toc {french}{}
\contentsline {paragraph}{Encadr\IeC {\'e} par M.Dadeau, le projet consiste en l'\IeC {\'e}laboration d'une intelligence artificielle pour des jeux de soci\IeC {\'e}t\IeC {\'e}. Cette intelligence artificielle devra apprendre par renforcement en fonction de ces exp\IeC {\'e}riences pass\IeC {\'e}e est d'un syst\IeC {\`e}me de r\IeC {\'e}compense. Cette impl\IeC {\'e}mentation sera faite en JavaScript avec une partie client et une partie serveur. Pour ce projet nous avons d\IeC {\'e}cid\IeC {\'e} de prendre le jeu de soci\IeC {\'e}t\IeC {\'e} Santorini sous une version simplifi\IeC {\'e}e, plus apte a l'apprentissage par renforcement. Le r\IeC {\'e}seau de neurones, quand \IeC {\`a} lui sera d\IeC {\'e}velopp\IeC {\'e} avec le framework Brain.js. }{2}% 
\contentsline {chapter}{\numberline {1}Mise en place}{3}% 
\contentsline {section}{\numberline {1.1}Architecture}{3}% 
\contentsline {paragraph}{Les modules utilis\IeC {\'e}e dans le projet. L'organisation des fichiers du projet. Pourquoi cette organisation, pourquoi ces frameworks.}{3}% 
\contentsline {paragraph}{Pour ce projet nous avons Node.js qui est un framework pour JavaScript. Node.js permet l'installation de packet, qui permet l'utilisation simplifi\IeC {\'e} de fonction utile. Dans ce projet, nous avons choisi d'utilis\IeC {\'e} les packages suivants : express, socket.io, brain.js, fs. Nous avons de plus cr\IeC {\'e}e nos propre librairies afin de rendre le code facilement r\IeC {\'e}utilisable. }{3}% 
\contentsline {section}{\numberline {1.2}Jeu}{3}% 
\contentsline {paragraph}{Le choix du jeu utilis\IeC {\'e}, l'explication des r\IeC {\`e}gles du jeu. Pourquoi ce jeu, quels ont \IeC {\'e}t\IeC {\'e} les autres candidats ou les candidats possible.}{3}% 
\contentsline {section}{\numberline {1.3}I.A Simple}{3}% 
\contentsline {paragraph}{\IeC {\'E}laboration d'une I.A stupide afin de tester les r\IeC {\`e}gles du jeu (dans un premier temps). \IeC {\'E}laboration de donn\IeC {\'e}es pour l\IeC {\textquoteright }entra\IeC {\^\i }nement de l'I.A.}{3}% 
\contentsline {chapter}{\numberline {2}I.A}{4}% 
\contentsline {section}{\numberline {2.1}Principe I.A}{4}% 
\contentsline {paragraph}{Comment fonctionne une I.A, quels en sont les points cl\IeC {\'e}s. Quels sont les donn\IeC {\'e}es de tests. Quels sont les diff\IeC {\'e}rents type d'I.A.}{4}% 
\contentsline {section}{\numberline {2.2}Tensorflow.js, difficult\IeC {\'e}}{4}% 
\contentsline {paragraph}{Quels ont \IeC {\'e}t\IeC {\'e} les difficult\IeC {\'e}s avec Tensorflow.js, quels sont les limites de Tensorflow.js. Quels ont sont les perfs.}{4}% 
\contentsline {section}{\numberline {2.3}La solution, Brain.js}{4}% 
\contentsline {paragraph}{Brain.js une solution plus simple d'utilisation. Une solution plus optimis\IeC {\'e}e pour l\IeC {\textquoteright }apprentissage par renforcement; --> Sp\IeC {\'e}cialit\IeC {\'e}; }{4}% 
\contentsline {chapter}{\numberline {3}Mise en place I.A}{5}% 
\contentsline {section}{\numberline {3.1}Apprentissage par renforcement}{5}% 
\contentsline {paragraph}{Quels sont les donn\IeC {\'e}es mis en place; Comment sont format\IeC {\'e}e les donn\IeC {\'e}es. Comment sont lues les donn\IeC {\'e}es. Que ce passe t-il avec le r\IeC {\'e}seau de neurone; --> Si possible sch\IeC {\'e}ma avec le r\IeC {\'e}seau de neurone au diff\IeC {\'e}rente \IeC {\'e}tapes.}{5}% 
\contentsline {section}{\numberline {3.2}Entra\IeC {\^\i }nement}{5}% 
\contentsline {paragraph}{Comment l'I.A s\IeC {\textquoteright }entra\IeC {\^\i }ne, quels sont les modifications effectuer, au bout de combien de g\IeC {\'e}n\IeC {\'e}ration elle deviens efficace.}{5}% 
