<mxfile host="www.draw.io" modified="2020-03-09T10:28:37.745Z" agent="Mozilla/5.0 (X11; Linux x86_64; rv:75.0) Gecko/20100101 Firefox/75.0" etag="F8g4XTrogmIX8xE72Rsp" version="12.8.1" type="gitlab">
  <diagram id="fy1mvNTJXgDa6Xb8gIic" name="Page-1">
    <mxGraphModel dx="1008" dy="497" grid="1" gridSize="10" guides="1" tooltips="1" connect="1" arrows="1" fold="1" page="1" pageScale="1" pageWidth="850" pageHeight="1100" math="0" shadow="0">
      <root>
        <mxCell id="0" />
        <mxCell id="1" parent="0" />
        <mxCell id="G1SoNduqoBfmhf9EE9Sh-27" value="" style="group" vertex="1" connectable="0" parent="1">
          <mxGeometry x="40" y="40" width="200" height="200" as="geometry" />
        </mxCell>
        <mxCell id="G1SoNduqoBfmhf9EE9Sh-16" value="" style="group;connectable=0;allowArrows=0;movable=0;editable=0;" vertex="1" connectable="0" parent="G1SoNduqoBfmhf9EE9Sh-27">
          <mxGeometry width="200" height="200" as="geometry" />
        </mxCell>
        <mxCell id="S3jd4em7NQUopC1-M9uV-12" value="" style="group" parent="G1SoNduqoBfmhf9EE9Sh-16" vertex="1" connectable="0">
          <mxGeometry width="200" height="200" as="geometry" />
        </mxCell>
        <mxCell id="S3jd4em7NQUopC1-M9uV-8" value="" style="group" parent="S3jd4em7NQUopC1-M9uV-12" vertex="1" connectable="0">
          <mxGeometry width="200" height="200" as="geometry" />
        </mxCell>
        <mxCell id="S3jd4em7NQUopC1-M9uV-6" value="" style="group" parent="S3jd4em7NQUopC1-M9uV-8" vertex="1" connectable="0">
          <mxGeometry width="200" height="200" as="geometry" />
        </mxCell>
        <mxCell id="S3jd4em7NQUopC1-M9uV-1" value="" style="whiteSpace=wrap;html=1;aspect=fixed;" parent="S3jd4em7NQUopC1-M9uV-6" vertex="1">
          <mxGeometry width="200" height="200" as="geometry" />
        </mxCell>
        <mxCell id="S3jd4em7NQUopC1-M9uV-2" value="" style="endArrow=none;html=1;exitX=0.205;exitY=-0.003;exitDx=0;exitDy=0;exitPerimeter=0;entryX=0.207;entryY=0.997;entryDx=0;entryDy=0;entryPerimeter=0;" parent="S3jd4em7NQUopC1-M9uV-6" source="S3jd4em7NQUopC1-M9uV-1" target="S3jd4em7NQUopC1-M9uV-1" edge="1">
          <mxGeometry width="50" height="50" relative="1" as="geometry">
            <mxPoint x="41" y="10" as="sourcePoint" />
            <mxPoint x="41" y="190" as="targetPoint" />
          </mxGeometry>
        </mxCell>
        <mxCell id="S3jd4em7NQUopC1-M9uV-3" value="" style="endArrow=none;html=1;exitX=0.205;exitY=-0.003;exitDx=0;exitDy=0;exitPerimeter=0;entryX=0.207;entryY=0.997;entryDx=0;entryDy=0;entryPerimeter=0;" parent="S3jd4em7NQUopC1-M9uV-6" edge="1">
          <mxGeometry width="50" height="50" relative="1" as="geometry">
            <mxPoint x="80" y="3.552713678800501e-14" as="sourcePoint" />
            <mxPoint x="80.39999999999998" y="199.99999999999997" as="targetPoint" />
          </mxGeometry>
        </mxCell>
        <mxCell id="S3jd4em7NQUopC1-M9uV-4" value="" style="endArrow=none;html=1;exitX=0.205;exitY=-0.003;exitDx=0;exitDy=0;exitPerimeter=0;entryX=0.207;entryY=0.997;entryDx=0;entryDy=0;entryPerimeter=0;" parent="S3jd4em7NQUopC1-M9uV-6" edge="1">
          <mxGeometry width="50" height="50" relative="1" as="geometry">
            <mxPoint x="120" y="3.552713678800501e-14" as="sourcePoint" />
            <mxPoint x="120.39999999999998" y="199.99999999999997" as="targetPoint" />
          </mxGeometry>
        </mxCell>
        <mxCell id="S3jd4em7NQUopC1-M9uV-5" value="" style="endArrow=none;html=1;exitX=0.205;exitY=-0.003;exitDx=0;exitDy=0;exitPerimeter=0;entryX=0.207;entryY=0.997;entryDx=0;entryDy=0;entryPerimeter=0;" parent="S3jd4em7NQUopC1-M9uV-6" edge="1">
          <mxGeometry width="50" height="50" relative="1" as="geometry">
            <mxPoint x="160" y="5.684341886080802e-14" as="sourcePoint" />
            <mxPoint x="160.39999999999998" y="200" as="targetPoint" />
          </mxGeometry>
        </mxCell>
        <mxCell id="S3jd4em7NQUopC1-M9uV-7" value="" style="endArrow=none;html=1;exitX=-0.003;exitY=0.203;exitDx=0;exitDy=0;exitPerimeter=0;entryX=0.996;entryY=0.204;entryDx=0;entryDy=0;entryPerimeter=0;" parent="S3jd4em7NQUopC1-M9uV-6" source="S3jd4em7NQUopC1-M9uV-1" target="S3jd4em7NQUopC1-M9uV-1" edge="1">
          <mxGeometry width="50" height="50" relative="1" as="geometry">
            <mxPoint x="180" y="130" as="sourcePoint" />
            <mxPoint x="230" y="80" as="targetPoint" />
          </mxGeometry>
        </mxCell>
        <mxCell id="S3jd4em7NQUopC1-M9uV-9" value="" style="endArrow=none;html=1;exitX=-0.003;exitY=0.203;exitDx=0;exitDy=0;exitPerimeter=0;entryX=0.996;entryY=0.204;entryDx=0;entryDy=0;entryPerimeter=0;" parent="S3jd4em7NQUopC1-M9uV-6" edge="1">
          <mxGeometry width="50" height="50" relative="1" as="geometry">
            <mxPoint x="9.237055564881302e-14" y="79.99999999999997" as="sourcePoint" />
            <mxPoint x="199.80000000000004" y="80.19999999999996" as="targetPoint" />
          </mxGeometry>
        </mxCell>
        <mxCell id="S3jd4em7NQUopC1-M9uV-10" value="" style="endArrow=none;html=1;exitX=-0.003;exitY=0.203;exitDx=0;exitDy=0;exitPerimeter=0;entryX=0.996;entryY=0.204;entryDx=0;entryDy=0;entryPerimeter=0;" parent="S3jd4em7NQUopC1-M9uV-6" edge="1">
          <mxGeometry width="50" height="50" relative="1" as="geometry">
            <mxPoint x="9.237055564881302e-14" y="119.99999999999997" as="sourcePoint" />
            <mxPoint x="199.80000000000004" y="120.19999999999996" as="targetPoint" />
          </mxGeometry>
        </mxCell>
        <mxCell id="S3jd4em7NQUopC1-M9uV-11" value="" style="endArrow=none;html=1;exitX=-0.003;exitY=0.203;exitDx=0;exitDy=0;exitPerimeter=0;entryX=0.996;entryY=0.204;entryDx=0;entryDy=0;entryPerimeter=0;" parent="S3jd4em7NQUopC1-M9uV-6" edge="1">
          <mxGeometry width="50" height="50" relative="1" as="geometry">
            <mxPoint x="9.237055564881302e-14" y="159.99999999999997" as="sourcePoint" />
            <mxPoint x="199.80000000000004" y="160.19999999999996" as="targetPoint" />
          </mxGeometry>
        </mxCell>
        <mxCell id="G1SoNduqoBfmhf9EE9Sh-4" value="" style="shape=ellipse;fillColor=#0065FF;strokeColor=none;html=1" vertex="1" parent="S3jd4em7NQUopC1-M9uV-6">
          <mxGeometry x="85" y="85" width="30" height="30" as="geometry" />
        </mxCell>
        <mxCell id="G1SoNduqoBfmhf9EE9Sh-6" value="" style="endArrow=classic;html=1;exitX=0.5;exitY=1;exitDx=0;exitDy=0;" edge="1" parent="S3jd4em7NQUopC1-M9uV-6" source="G1SoNduqoBfmhf9EE9Sh-4">
          <mxGeometry width="50" height="50" relative="1" as="geometry">
            <mxPoint x="90" y="150" as="sourcePoint" />
            <mxPoint x="100" y="140" as="targetPoint" />
          </mxGeometry>
        </mxCell>
        <mxCell id="G1SoNduqoBfmhf9EE9Sh-13" value="" style="endArrow=classic;html=1;exitX=0;exitY=0.5;exitDx=0;exitDy=0;" edge="1" parent="S3jd4em7NQUopC1-M9uV-6" source="G1SoNduqoBfmhf9EE9Sh-4">
          <mxGeometry width="50" height="50" relative="1" as="geometry">
            <mxPoint x="-20" y="170" as="sourcePoint" />
            <mxPoint x="60" y="100" as="targetPoint" />
          </mxGeometry>
        </mxCell>
        <mxCell id="G1SoNduqoBfmhf9EE9Sh-12" value="" style="endArrow=classic;html=1;exitX=0.5;exitY=0;exitDx=0;exitDy=0;" edge="1" parent="S3jd4em7NQUopC1-M9uV-6" source="G1SoNduqoBfmhf9EE9Sh-4">
          <mxGeometry width="50" height="50" relative="1" as="geometry">
            <mxPoint x="-20" y="170" as="sourcePoint" />
            <mxPoint x="100" y="60" as="targetPoint" />
          </mxGeometry>
        </mxCell>
        <mxCell id="G1SoNduqoBfmhf9EE9Sh-24" value="" style="endArrow=classic;html=1;" edge="1" parent="S3jd4em7NQUopC1-M9uV-6">
          <mxGeometry width="50" height="50" relative="1" as="geometry">
            <mxPoint x="90" y="110" as="sourcePoint" />
            <mxPoint x="70" y="130" as="targetPoint" />
          </mxGeometry>
        </mxCell>
        <mxCell id="G1SoNduqoBfmhf9EE9Sh-23" value="" style="endArrow=classic;html=1;" edge="1" parent="S3jd4em7NQUopC1-M9uV-6">
          <mxGeometry width="50" height="50" relative="1" as="geometry">
            <mxPoint x="110" y="90" as="sourcePoint" />
            <mxPoint x="130" y="70" as="targetPoint" />
          </mxGeometry>
        </mxCell>
        <mxCell id="G1SoNduqoBfmhf9EE9Sh-22" value="" style="endArrow=classic;html=1;" edge="1" parent="S3jd4em7NQUopC1-M9uV-6">
          <mxGeometry width="50" height="50" relative="1" as="geometry">
            <mxPoint x="90" y="90" as="sourcePoint" />
            <mxPoint x="70" y="70" as="targetPoint" />
            <Array as="points">
              <mxPoint x="80" y="80" />
            </Array>
          </mxGeometry>
        </mxCell>
        <mxCell id="G1SoNduqoBfmhf9EE9Sh-21" value="" style="endArrow=classic;html=1;" edge="1" parent="S3jd4em7NQUopC1-M9uV-6">
          <mxGeometry width="50" height="50" relative="1" as="geometry">
            <mxPoint x="110" y="110" as="sourcePoint" />
            <mxPoint x="130" y="130" as="targetPoint" />
            <Array as="points">
              <mxPoint x="120" y="120" />
            </Array>
          </mxGeometry>
        </mxCell>
        <mxCell id="G1SoNduqoBfmhf9EE9Sh-29" value="&lt;div&gt;1&lt;/div&gt;" style="text;html=1;align=center;verticalAlign=middle;resizable=0;points=[];autosize=1;" vertex="1" parent="S3jd4em7NQUopC1-M9uV-6">
          <mxGeometry x="90" y="40" width="20" height="20" as="geometry" />
        </mxCell>
        <mxCell id="G1SoNduqoBfmhf9EE9Sh-30" value="&lt;div&gt;2&lt;/div&gt;" style="text;html=1;align=center;verticalAlign=middle;resizable=0;points=[];autosize=1;" vertex="1" parent="S3jd4em7NQUopC1-M9uV-6">
          <mxGeometry x="130" y="50" width="20" height="20" as="geometry" />
        </mxCell>
        <mxCell id="G1SoNduqoBfmhf9EE9Sh-32" value="&lt;div&gt;3&lt;/div&gt;" style="text;html=1;align=center;verticalAlign=middle;resizable=0;points=[];autosize=1;" vertex="1" parent="S3jd4em7NQUopC1-M9uV-6">
          <mxGeometry x="140" y="90" width="20" height="20" as="geometry" />
        </mxCell>
        <mxCell id="G1SoNduqoBfmhf9EE9Sh-33" value="&lt;div&gt;4&lt;/div&gt;" style="text;html=1;align=center;verticalAlign=middle;resizable=0;points=[];autosize=1;" vertex="1" parent="S3jd4em7NQUopC1-M9uV-6">
          <mxGeometry x="130" y="130" width="20" height="20" as="geometry" />
        </mxCell>
        <mxCell id="G1SoNduqoBfmhf9EE9Sh-34" value="5" style="text;html=1;align=center;verticalAlign=middle;resizable=0;points=[];autosize=1;" vertex="1" parent="S3jd4em7NQUopC1-M9uV-6">
          <mxGeometry x="90" y="140" width="20" height="20" as="geometry" />
        </mxCell>
        <mxCell id="G1SoNduqoBfmhf9EE9Sh-35" value="6" style="text;html=1;align=center;verticalAlign=middle;resizable=0;points=[];autosize=1;" vertex="1" parent="S3jd4em7NQUopC1-M9uV-6">
          <mxGeometry x="50" y="130" width="20" height="20" as="geometry" />
        </mxCell>
        <mxCell id="G1SoNduqoBfmhf9EE9Sh-36" value="7" style="text;html=1;align=center;verticalAlign=middle;resizable=0;points=[];autosize=1;" vertex="1" parent="S3jd4em7NQUopC1-M9uV-6">
          <mxGeometry x="40" y="90" width="20" height="20" as="geometry" />
        </mxCell>
        <mxCell id="G1SoNduqoBfmhf9EE9Sh-37" value="8" style="text;html=1;align=center;verticalAlign=middle;resizable=0;points=[];autosize=1;" vertex="1" parent="S3jd4em7NQUopC1-M9uV-6">
          <mxGeometry x="50" y="50" width="20" height="20" as="geometry" />
        </mxCell>
        <mxCell id="G1SoNduqoBfmhf9EE9Sh-5" value="" style="endArrow=classic;html=1;" edge="1" parent="G1SoNduqoBfmhf9EE9Sh-16" source="G1SoNduqoBfmhf9EE9Sh-4">
          <mxGeometry width="50" height="50" relative="1" as="geometry">
            <mxPoint x="90" y="150" as="sourcePoint" />
            <mxPoint x="140" y="100" as="targetPoint" />
          </mxGeometry>
        </mxCell>
        <mxCell id="G1SoNduqoBfmhf9EE9Sh-28" value="&lt;div&gt;[1,2,3,4,5,6,7,8]&lt;/div&gt;" style="text;html=1;align=center;verticalAlign=middle;resizable=0;points=[];autosize=1;" vertex="1" parent="1">
          <mxGeometry x="260" y="130" width="100" height="20" as="geometry" />
        </mxCell>
        <mxCell id="G1SoNduqoBfmhf9EE9Sh-38" value="&lt;font style=&quot;font-size: 9px&quot;&gt;tmpmove&lt;/font&gt;" style="text;html=1;align=center;verticalAlign=middle;resizable=0;points=[];autosize=1;" vertex="1" parent="1">
          <mxGeometry x="250" y="110" width="50" height="20" as="geometry" />
        </mxCell>
        <mxCell id="G1SoNduqoBfmhf9EE9Sh-136" value="" style="whiteSpace=wrap;html=1;aspect=fixed;" vertex="1" parent="1">
          <mxGeometry x="40" y="280" width="200" height="200" as="geometry" />
        </mxCell>
        <mxCell id="G1SoNduqoBfmhf9EE9Sh-137" value="" style="endArrow=none;html=1;entryX=0.204;entryY=0.004;entryDx=0;entryDy=0;entryPerimeter=0;exitX=0.201;exitY=1.001;exitDx=0;exitDy=0;exitPerimeter=0;" edge="1" parent="1" source="G1SoNduqoBfmhf9EE9Sh-136" target="G1SoNduqoBfmhf9EE9Sh-136">
          <mxGeometry width="50" height="50" relative="1" as="geometry">
            <mxPoint x="81" y="470" as="sourcePoint" />
            <mxPoint x="79" y="300" as="targetPoint" />
          </mxGeometry>
        </mxCell>
        <mxCell id="G1SoNduqoBfmhf9EE9Sh-138" value="" style="endArrow=none;html=1;entryX=0.196;entryY=-0.005;entryDx=0;entryDy=0;entryPerimeter=0;exitX=0.399;exitY=1;exitDx=0;exitDy=0;exitPerimeter=0;" edge="1" parent="1" source="G1SoNduqoBfmhf9EE9Sh-136">
          <mxGeometry width="50" height="50" relative="1" as="geometry">
            <mxPoint x="119.99999999999993" y="482.19999999999993" as="sourcePoint" />
            <mxPoint x="120.99999999999993" y="280" as="targetPoint" />
          </mxGeometry>
        </mxCell>
        <mxCell id="G1SoNduqoBfmhf9EE9Sh-139" value="" style="endArrow=none;html=1;entryX=0.196;entryY=-0.005;entryDx=0;entryDy=0;entryPerimeter=0;exitX=0.597;exitY=0.999;exitDx=0;exitDy=0;exitPerimeter=0;" edge="1" parent="1" source="G1SoNduqoBfmhf9EE9Sh-136">
          <mxGeometry width="50" height="50" relative="1" as="geometry">
            <mxPoint x="159.99999999999994" y="482.19999999999993" as="sourcePoint" />
            <mxPoint x="160.99999999999994" y="280" as="targetPoint" />
          </mxGeometry>
        </mxCell>
        <mxCell id="G1SoNduqoBfmhf9EE9Sh-140" value="" style="endArrow=none;html=1;exitX=0.191;exitY=1.006;exitDx=0;exitDy=0;exitPerimeter=0;" edge="1" parent="1">
          <mxGeometry width="50" height="50" relative="1" as="geometry">
            <mxPoint x="199.99999999999994" y="479.99999999999994" as="sourcePoint" />
            <mxPoint x="201" y="280" as="targetPoint" />
          </mxGeometry>
        </mxCell>
        <mxCell id="G1SoNduqoBfmhf9EE9Sh-142" value="" style="endArrow=none;html=1;exitX=0.001;exitY=0.2;exitDx=0;exitDy=0;exitPerimeter=0;entryX=1.003;entryY=0.201;entryDx=0;entryDy=0;entryPerimeter=0;" edge="1" parent="1" source="G1SoNduqoBfmhf9EE9Sh-136" target="G1SoNduqoBfmhf9EE9Sh-136">
          <mxGeometry width="50" height="50" relative="1" as="geometry">
            <mxPoint x="160" y="420" as="sourcePoint" />
            <mxPoint x="210" y="370" as="targetPoint" />
          </mxGeometry>
        </mxCell>
        <mxCell id="G1SoNduqoBfmhf9EE9Sh-143" value="" style="endArrow=none;html=1;exitX=0.001;exitY=0.2;exitDx=0;exitDy=0;exitPerimeter=0;entryX=1.003;entryY=0.201;entryDx=0;entryDy=0;entryPerimeter=0;" edge="1" parent="1">
          <mxGeometry width="50" height="50" relative="1" as="geometry">
            <mxPoint x="39.600000000000044" y="360" as="sourcePoint" />
            <mxPoint x="240.00000000000003" y="360.20000000000005" as="targetPoint" />
          </mxGeometry>
        </mxCell>
        <mxCell id="G1SoNduqoBfmhf9EE9Sh-144" value="" style="endArrow=none;html=1;exitX=0.001;exitY=0.2;exitDx=0;exitDy=0;exitPerimeter=0;entryX=1.003;entryY=0.201;entryDx=0;entryDy=0;entryPerimeter=0;" edge="1" parent="1">
          <mxGeometry width="50" height="50" relative="1" as="geometry">
            <mxPoint x="39.600000000000044" y="400" as="sourcePoint" />
            <mxPoint x="240.00000000000003" y="400.20000000000005" as="targetPoint" />
          </mxGeometry>
        </mxCell>
        <mxCell id="G1SoNduqoBfmhf9EE9Sh-145" value="" style="endArrow=none;html=1;exitX=0.001;exitY=0.2;exitDx=0;exitDy=0;exitPerimeter=0;entryX=1.003;entryY=0.201;entryDx=0;entryDy=0;entryPerimeter=0;" edge="1" parent="1">
          <mxGeometry width="50" height="50" relative="1" as="geometry">
            <mxPoint x="39.600000000000044" y="440" as="sourcePoint" />
            <mxPoint x="240.00000000000003" y="440.20000000000005" as="targetPoint" />
          </mxGeometry>
        </mxCell>
        <mxCell id="G1SoNduqoBfmhf9EE9Sh-146" value="" style="shape=ellipse;fillColor=#0065FF;strokeColor=none;html=1" vertex="1" parent="1">
          <mxGeometry x="170" y="330" width="20" height="20" as="geometry" />
        </mxCell>
        <mxCell id="G1SoNduqoBfmhf9EE9Sh-147" value="" style="shape=ellipse;fillColor=#0065FF;strokeColor=none;html=1;opacity=30;" vertex="1" parent="1">
          <mxGeometry x="130" y="370" width="20" height="20" as="geometry" />
        </mxCell>
        <mxCell id="G1SoNduqoBfmhf9EE9Sh-148" value="" style="endArrow=classic;html=1;exitX=0.819;exitY=0.11;exitDx=0;exitDy=0;exitPerimeter=0;" edge="1" parent="1" source="G1SoNduqoBfmhf9EE9Sh-146">
          <mxGeometry width="50" height="50" relative="1" as="geometry">
            <mxPoint x="190" y="330" as="sourcePoint" />
            <mxPoint x="210" y="310" as="targetPoint" />
          </mxGeometry>
        </mxCell>
        <mxCell id="G1SoNduqoBfmhf9EE9Sh-149" value="" style="endArrow=classic;html=1;" edge="1" parent="1">
          <mxGeometry width="50" height="50" relative="1" as="geometry">
            <mxPoint x="179.76" y="330" as="sourcePoint" />
            <mxPoint x="180" y="300" as="targetPoint" />
          </mxGeometry>
        </mxCell>
        <mxCell id="G1SoNduqoBfmhf9EE9Sh-150" value="" style="endArrow=classic;html=1;" edge="1" parent="1">
          <mxGeometry width="50" height="50" relative="1" as="geometry">
            <mxPoint x="179.76" y="350" as="sourcePoint" />
            <mxPoint x="180" y="380" as="targetPoint" />
          </mxGeometry>
        </mxCell>
        <mxCell id="G1SoNduqoBfmhf9EE9Sh-151" value="" style="endArrow=classic;html=1;" edge="1" parent="1">
          <mxGeometry width="50" height="50" relative="1" as="geometry">
            <mxPoint x="190" y="339.76" as="sourcePoint" />
            <mxPoint x="220" y="339.76" as="targetPoint" />
            <Array as="points">
              <mxPoint x="210" y="339.76" />
            </Array>
          </mxGeometry>
        </mxCell>
        <mxCell id="G1SoNduqoBfmhf9EE9Sh-152" value="" style="endArrow=classic;html=1;" edge="1" parent="1">
          <mxGeometry width="50" height="50" relative="1" as="geometry">
            <mxPoint x="170" y="339.76" as="sourcePoint" />
            <mxPoint x="140" y="339.76" as="targetPoint" />
          </mxGeometry>
        </mxCell>
        <mxCell id="G1SoNduqoBfmhf9EE9Sh-153" value="" style="endArrow=classic;html=1;exitX=0.148;exitY=0.165;exitDx=0;exitDy=0;exitPerimeter=0;" edge="1" parent="1" source="G1SoNduqoBfmhf9EE9Sh-146">
          <mxGeometry width="50" height="50" relative="1" as="geometry">
            <mxPoint x="170" y="330" as="sourcePoint" />
            <mxPoint x="150" y="310" as="targetPoint" />
          </mxGeometry>
        </mxCell>
        <mxCell id="G1SoNduqoBfmhf9EE9Sh-154" value="" style="endArrow=classic;html=1;exitX=0.835;exitY=0.871;exitDx=0;exitDy=0;exitPerimeter=0;" edge="1" parent="1" source="G1SoNduqoBfmhf9EE9Sh-146">
          <mxGeometry width="50" height="50" relative="1" as="geometry">
            <mxPoint x="190" y="350" as="sourcePoint" />
            <mxPoint x="210" y="370" as="targetPoint" />
            <Array as="points">
              <mxPoint x="200" y="360" />
            </Array>
          </mxGeometry>
        </mxCell>
        <mxCell id="G1SoNduqoBfmhf9EE9Sh-155" value="" style="endArrow=classic;html=1;exitX=0.171;exitY=0.829;exitDx=0;exitDy=0;exitPerimeter=0;" edge="1" parent="1" source="G1SoNduqoBfmhf9EE9Sh-146">
          <mxGeometry width="50" height="50" relative="1" as="geometry">
            <mxPoint x="170" y="350" as="sourcePoint" />
            <mxPoint x="150" y="370" as="targetPoint" />
          </mxGeometry>
        </mxCell>
        <mxCell id="G1SoNduqoBfmhf9EE9Sh-156" value="&lt;div&gt;1&#39;&lt;br&gt;&lt;/div&gt;&lt;div&gt;&lt;br&gt;&lt;/div&gt;" style="text;html=1;align=center;verticalAlign=middle;resizable=0;points=[];autosize=1;" vertex="1" parent="1">
          <mxGeometry x="165" y="280" width="30" height="30" as="geometry" />
        </mxCell>
        <mxCell id="G1SoNduqoBfmhf9EE9Sh-157" value="2&#39;" style="text;html=1;align=center;verticalAlign=middle;resizable=0;points=[];autosize=1;" vertex="1" parent="1">
          <mxGeometry x="205" y="288" width="30" height="20" as="geometry" />
        </mxCell>
        <mxCell id="G1SoNduqoBfmhf9EE9Sh-158" value="3&#39;" style="text;html=1;align=center;verticalAlign=middle;resizable=0;points=[];autosize=1;" vertex="1" parent="1">
          <mxGeometry x="210" y="328" width="30" height="20" as="geometry" />
        </mxCell>
        <mxCell id="G1SoNduqoBfmhf9EE9Sh-159" value="4&#39;" style="text;html=1;align=center;verticalAlign=middle;resizable=0;points=[];autosize=1;" vertex="1" parent="1">
          <mxGeometry x="205" y="369" width="30" height="20" as="geometry" />
        </mxCell>
        <mxCell id="G1SoNduqoBfmhf9EE9Sh-160" value="5&#39;" style="text;html=1;align=center;verticalAlign=middle;resizable=0;points=[];autosize=1;" vertex="1" parent="1">
          <mxGeometry x="165" y="380" width="30" height="20" as="geometry" />
        </mxCell>
        <mxCell id="G1SoNduqoBfmhf9EE9Sh-161" value="6&#39;" style="text;html=1;align=center;verticalAlign=middle;resizable=0;points=[];autosize=1;" vertex="1" parent="1">
          <mxGeometry x="125" y="369" width="30" height="20" as="geometry" />
        </mxCell>
        <mxCell id="G1SoNduqoBfmhf9EE9Sh-162" value="7&#39;" style="text;html=1;align=center;verticalAlign=middle;resizable=0;points=[];autosize=1;" vertex="1" parent="1">
          <mxGeometry x="120" y="328" width="30" height="20" as="geometry" />
        </mxCell>
        <mxCell id="G1SoNduqoBfmhf9EE9Sh-163" value="8&#39;" style="text;html=1;align=center;verticalAlign=middle;resizable=0;points=[];autosize=1;" vertex="1" parent="1">
          <mxGeometry x="125" y="288" width="30" height="20" as="geometry" />
        </mxCell>
        <mxCell id="G1SoNduqoBfmhf9EE9Sh-164" value="&lt;div&gt;[1&#39;,2&#39;,3&#39;,4&#39;,5&#39;,6&#39;,7&#39;,8&#39;]&lt;/div&gt;" style="text;html=1;align=center;verticalAlign=middle;resizable=0;points=[];autosize=1;" vertex="1" parent="1">
          <mxGeometry x="260" y="340" width="120" height="20" as="geometry" />
        </mxCell>
        <mxCell id="G1SoNduqoBfmhf9EE9Sh-165" value="&lt;font style=&quot;font-size: 9px&quot;&gt;tmpbuild&lt;/font&gt;" style="text;html=1;align=center;verticalAlign=middle;resizable=0;points=[];autosize=1;" vertex="1" parent="1">
          <mxGeometry x="260" y="320" width="50" height="20" as="geometry" />
        </mxCell>
      </root>
    </mxGraphModel>
  </diagram>
</mxfile>
